[0] Config.pm:304> INFO - This is Biber 2.12
[0] Config.pm:307> INFO - Logfile is 'ejemplo_tfm_ingles_2019.blg'
[63] biber-MSWIN32:315> INFO - === 
[115] Biber.pm:371> INFO - Reading 'ejemplo_tfm_ingles_2019.bcf'
[275] Biber.pm:886> INFO - Using all citekeys in bib section 0
[300] Biber.pm:4093> INFO - Processing section 0
[324] Biber.pm:4254> INFO - Looking for bibtex format file 'bibliografia/bibliografia.bib' for section 0
[344] bibtex.pm:1523> INFO - LaTeX decoding ...
[422] bibtex.pm:1340> INFO - Found BibTeX data source 'bibliografia/bibliografia.bib'
[543] UCollate.pm:68> INFO - Overriding locale 'en-US' defaults 'variable = shifted' with 'variable = non-ignorable'
[543] UCollate.pm:68> INFO - Overriding locale 'en-US' defaults 'normalization = NFD' with 'normalization = prenormalized'
[543] Biber.pm:3921> INFO - Sorting list 'none/global//global/global' of type 'entry' with template 'none' and locale 'en-US'
[543] Biber.pm:3927> INFO - No sort tailoring available for locale 'en-US'
[555] bbl.pm:636> INFO - Writing 'ejemplo_tfm_ingles_2019.bbl' with encoding 'UTF-8'
[563] bbl.pm:739> INFO - Output to ejemplo_tfm_ingles_2019.bbl
